IS415-GAA - Take-home Assignment 02: Application of Spatial and Spatio-temporal Analysis Methods to Discover the Distribution of Dengue Fever in Tainan City, Taiwan PART-1
…
Gi* and local Gi* are distance-based spatial statistics. Hence, distance methods instead of contiguity methods should be used to derive the spatial weight matrix.

HCSA <- wm_idw %>% 
  mutate(local_Gi = local_gstar_perm(
    CASES, nb, wt, nsim = 99),
         .before = 1) %>%
  unnest(local_Gi)
HCSA

Simple feature collection with 258 features and 14 fields
Geometry type: POLYGON
Dimension:     XY
Bounding box:  xmin: 1706980 ymin: 2517095 xmax: 1731585 ymax: 2538349
Projected CRS: SVY21 / Singapore TM
# A tibble: 258 × 15
   gi_star    e_gi   var_gi p_value   p_sim p_folded_sim skewness kurtosis nb   
     <dbl>   <dbl>    <dbl>   <dbl>   <dbl>        <dbl>    <dbl>    <dbl> <nb> 
 1 -1.95   0.00286  2.33e-6 -1.69   0.0919          0.02     0.01   0.843  <int>
 2 -1.64   0.00356  1.70e-6 -1.64   0.101           0.08     0.04   0.149  <int>
 3 -1.43   0.00431  1.37e-6 -1.86   0.0629          0.08     0.04   0.212  <int>
 4 -0.242  0.00367  1.83e-6 -0.0954 0.924           0.96     0.48   0.423  <int>
 5 -2.23   0.00329  2.59e-6 -1.91   0.0563          0.02     0.01   0.765  <int>
 6 -2.86   0.00335  1.41e-6 -2.67   0.00769         0.02     0.01   0.328  <int>
 7 -0.850  0.00324  2.05e-6 -0.530  0.596           0.64     0.32   0.622  <int>
 8  0.0876 0.00392  1.33e-6  0.0464 0.963           0.86     0.43   0.434  <int>
 9  1.85   0.00411  1.66e-6  1.96   0.0496          0.04     0.02   0.0225 <int>
10 -0.970  0.00381  1.69e-6 -0.978  0.328           0.36     0.18   0.195  <int>
# ℹ 248 more rows
# ℹ 6 more variables: wts <list>, COUNTYNAME <chr>, TOWNNAME <chr>,
#   VILLNAME <chr>, CASES <dbl>, geometry <POLYGON [m]>
…
